^C:\USERS\BRAULIO\DESKTOP\SIG_UAGRM\SIG_UAGRM\MY PROJECT\RESOURCES.RESX
C:\USERS\BRAULIO\DESKTOP\SIG_UAGRM\SIG_UAGRM\OBJ\DEBUG\SIG_UAGRM.RESOURCES.RESOURCES
^C:\USERS\MINEDU\DESKTOP\SEM 1 2013\SIG\SIG_UAGRM\SIG_UAGRM\MY PROJECT\RESOURCES.RESX
C:\USERS\MINEDU\DESKTOP\SEM 1 2013\SIG\SIG_UAGRM\SIG_UAGRM\OBJ\DEBUG\SIG_UAGRM.RESOURCES.RESOURCES
